{
  "heptools": {
    "binary_tag": "$CMTCONFIG",
    "version": "88",
    "packages": [
      [ "Python", "2.7.10",
        [ "bin", "lib" ]
      ],
      [ "libtool", "2.4.2",
        [ "bin", "python", "lib" ]
      ],
      [ "pygraphics", "2.0",
        [ "bin", "python", "lib" ]
      ],
      [ "Qt", "4.8.7",
        [ "bin", "python", "lib" ]
      ],
      [ "jsonc", "0.12",
        [ "bin", "python", "lib" ]
      ],
      [ "m2crypto", "0.25.1",
        [ "bin", "python", "lib" ]
      ],
      [ "mysql", "5.7.11",
        [ "bin", "python", "lib" ]
      ],
      [ "pyparsing", "2.1.8",
        [ "bin", "python" ]
      ],
      [ "pytools", "2.0",
        [ "bin", "python" ]
      ],
      [ "simplegeneric", "0.8.1",
        [ "bin", "python", "lib" ]
      ],
      [ "wcwidth", "0.1.7",
        [ "bin", "python", "lib" ]
      ],
      [ "prompt_toolkit", "1.0.3",
        [ "bin", "python", "lib" ]
      ],
      [ "pickleshare", "0.7.2",
        [ "bin", "python", "lib" ]
      ],
      [ "pathlib2", "2.1.0",
        [ "bin", "python", "lib" ]
      ],
      [ "backports", "1.0.0",
        [ "bin", "python", "lib" ]
      ],
      [ "pexpect", "4.2.0",
        [ "bin", "python", "lib" ]
      ],
      [ "ipython_genutils", "0.1.0",
        [ "bin", "python", "lib" ]
      ]
    ]
  }
}